Started at Mon Dec 13 20:02:06 UTC 2021
Processing DHCP_Config_Builder
Offering DHCP_Config_Builder to Project Build Discarder
Finished at Mon Dec 13 20:02:06 UTC 2021. 0ms
Started at Mon Dec 13 21:02:06 UTC 2021
Processing DHCP_Config_Builder
Offering DHCP_Config_Builder to Project Build Discarder
Finished at Mon Dec 13 21:02:06 UTC 2021. 0ms
