Started at Sun Dec 12 19:52:12 UTC 2021
Processing DHCP_Config_Builder
Offering DHCP_Config_Builder to Project Build Discarder
Finished at Sun Dec 12 19:52:12 UTC 2021. 2ms
Started at Sun Dec 12 20:52:12 UTC 2021
Processing DHCP_Config_Builder
Offering DHCP_Config_Builder to Project Build Discarder
Finished at Sun Dec 12 20:52:12 UTC 2021. 0ms
Started at Sun Dec 12 21:52:12 UTC 2021
Processing DHCP_Config_Builder
Offering DHCP_Config_Builder to Project Build Discarder
Finished at Sun Dec 12 21:52:12 UTC 2021. 0ms
